==========================================
  _  _                 ___              
 | || |  ___   _  _   / __|  __ _   _ _ 
 | __ | / -_) | || | | (__  / _` | | '_|
 |_||_| \___|  \_, |  \___| \__,_| |_|  
               |__/                     
==========================================
-----Code Challenge------Sikandar Ali Awan
                                   